{
    "records": [
        {
            "attributes": {
                "type": "Order_Header__c",
                "referenceId": "Order_Header__cRef1"
            },
            "Name": "000-Order Header 1",
            "Order_Number__c": "Order Number 1",
            "Factory_Number__c": "111",
            "Customer_Number__c": "Customer Number 1",
            "Customer_Name__c": "Customer Name 1-1",
            "Ordered_Date__c": "2019-05-31",
            "Order_Type__c": "Type",
            "Creation_Date__c": "2019-05-31",
            "Currency__c": "UAN",
            "Sales_Person__c": "Roman",
            "Order_Lines__r": {
                "records": []
            }
        },
        {
            "attributes": {
                "type": "Order_Header__c",
                "referenceId": "Order_Header__cRef2"
            },
            "Name": "000-Order Header 3",
            "Order_Number__c": "Order Number 3",
            "Factory_Number__c": "333",
            "Customer_Number__c": "Customer Number 3",
            "Customer_Name__c": "Customer Name 3-3",
            "Ordered_Date__c": "2019-05-29",
            "Order_Type__c": "Type",
            "Creation_Date__c": "2019-05-31",
            "Currency__c": "USD",
            "Sales_Person__c": "Victor",
            "Order_Lines__r": {
                "records": []
            }
        },
        {
            "attributes": {
                "type": "Order_Header__c",
                "referenceId": "Order_Header__cRef3"
            },
            "Name": "000-Order Header 2",
            "Order_Number__c": "Order Number 2",
            "Factory_Number__c": "222",
            "Customer_Number__c": "Customer Number 2",
            "Customer_Name__c": "Customer Name 2-2",
            "Ordered_Date__c": "2019-05-30",
            "Order_Type__c": "Type",
            "Creation_Date__c": "2019-05-31",
            "Currency__c": "GBR",
            "Sales_Person__c": "Boris",
            "Order_Lines__r": {
                "records": [
                    {
                        "attributes": {
                            "type": "Order_Lines__c",
                            "referenceId": "Order_Lines__cRef1"
                        },
                        "Name": "9",
                        "Line_Number__c": "A/009",
                        "Cancellation_Flag__c": false
                    },
                    {
                        "attributes": {
                            "type": "Order_Lines__c",
                            "referenceId": "Order_Lines__cRef2"
                        },
                        "Name": "11",
                        "Line_Number__c": "A/011",
                        "Cancellation_Flag__c": false
                    },
                    {
                        "attributes": {
                            "type": "Order_Lines__c",
                            "referenceId": "Order_Lines__cRef3"
                        },
                        "Name": "1",
                        "Line_Number__c": "111/AA",
                        "Item_Code__c": "Code 1",
                        "UOM__c": "EA",
                        "Unit_Selling_Price__c": 12,
                        "Pending_Quantity__c": 50,
                        "Cancellation_Flag__c": false
                    },
                    {
                        "attributes": {
                            "type": "Order_Lines__c",
                            "referenceId": "Order_Lines__cRef4"
                        },
                        "Name": "4",
                        "Line_Number__c": "444/DD",
                        "Item_Code__c": "Code 4",
                        "UOM__c": "EA",
                        "Unit_Selling_Price__c": 200,
                        "Pending_Quantity__c": 7,
                        "Cancellation_Flag__c": false
                    },
                    {
                        "attributes": {
                            "type": "Order_Lines__c",
                            "referenceId": "Order_Lines__cRef5"
                        },
                        "Name": "2",
                        "Line_Number__c": "222/BB",
                        "Item_Code__c": "Code 2",
                        "UOM__c": "EA",
                        "Unit_Selling_Price__c": 3,
                        "Pending_Quantity__c": 100,
                        "Cancellation_Flag__c": false
                    },
                    {
                        "attributes": {
                            "type": "Order_Lines__c",
                            "referenceId": "Order_Lines__cRef6"
                        },
                        "Name": "5",
                        "Line_Number__c": "555/EE",
                        "Item_Code__c": "Code 5",
                        "UOM__c": "EA",
                        "Unit_Selling_Price__c": 100,
                        "Pending_Quantity__c": 5,
                        "Cancellation_Flag__c": false
                    },
                    {
                        "attributes": {
                            "type": "Order_Lines__c",
                            "referenceId": "Order_Lines__cRef7"
                        },
                        "Name": "10",
                        "Line_Number__c": "A/010",
                        "Cancellation_Flag__c": false
                    },
                    {
                        "attributes": {
                            "type": "Order_Lines__c",
                            "referenceId": "Order_Lines__cRef8"
                        },
                        "Name": "6",
                        "Line_Number__c": "A/006",
                        "Cancellation_Flag__c": false
                    },
                    {
                        "attributes": {
                            "type": "Order_Lines__c",
                            "referenceId": "Order_Lines__cRef9"
                        },
                        "Name": "7",
                        "Line_Number__c": "A/007",
                        "Cancellation_Flag__c": false
                    },
                    {
                        "attributes": {
                            "type": "Order_Lines__c",
                            "referenceId": "Order_Lines__cRef10"
                        },
                        "Name": "8",
                        "Line_Number__c": "A/008",
                        "Cancellation_Flag__c": false
                    },
                    {
                        "attributes": {
                            "type": "Order_Lines__c",
                            "referenceId": "Order_Lines__cRef11"
                        },
                        "Name": "3",
                        "Line_Number__c": "333/CC",
                        "Item_Code__c": "Code 3",
                        "UOM__c": "EA",
                        "Unit_Selling_Price__c": 7,
                        "Pending_Quantity__c": 15,
                        "Cancellation_Flag__c": false
                    }
                ]
            }
        },
        {
            "attributes": {
                "type": "Order_Header__c",
                "referenceId": "Order_Header__cRef4"
            },
            "Name": "1 - Header Without Lines",
            "Order_Number__c": "1_Number",
            "Factory_Number__c": "AA/1",
            "Customer_Number__c": "CusNum-1",
            "Creation_Date__c": "2019-06-11",
            "Order_Lines__r": {
                "records": []
            }
        },
        {
            "attributes": {
                "type": "Order_Header__c",
                "referenceId": "Order_Header__cRef5"
            },
            "Name": "2 - Header Without Lines",
            "Order_Number__c": "2_Number",
            "Factory_Number__c": "AA/2",
            "Customer_Number__c": "CusNum-2",
            "Creation_Date__c": "2019-06-11",
            "Order_Lines__r": {
                "records": []
            }
        },
        {
            "attributes": {
                "type": "Order_Header__c",
                "referenceId": "Order_Header__cRef6"
            },
            "Name": "3 - Header Without Lines",
            "Order_Number__c": "3_Number",
            "Factory_Number__c": "AA/3",
            "Customer_Number__c": "CusNum-3",
            "Creation_Date__c": "2019-06-11",
            "Order_Lines__r": {
                "records": []
            }
        },
        {
            "attributes": {
                "type": "Order_Header__c",
                "referenceId": "Order_Header__cRef7"
            },
            "Name": "4 - Header Without Lines",
            "Order_Number__c": "4_Number",
            "Factory_Number__c": "AA/4",
            "Customer_Number__c": "CusNum-4",
            "Creation_Date__c": "2019-06-11",
            "Order_Lines__r": {
                "records": []
            }
        },
        {
            "attributes": {
                "type": "Order_Header__c",
                "referenceId": "Order_Header__cRef8"
            },
            "Name": "5 - Header Without Lines",
            "Order_Number__c": "5_Number",
            "Factory_Number__c": "AA/5",
            "Customer_Number__c": "CusNum-5",
            "Creation_Date__c": "2019-06-11",
            "Order_Lines__r": {
                "records": []
            }
        },
        {
            "attributes": {
                "type": "Order_Header__c",
                "referenceId": "Order_Header__cRef9"
            },
            "Name": "6 - Header Without Lines",
            "Order_Number__c": "6_Number",
            "Factory_Number__c": "AA/6",
            "Customer_Number__c": "CusNum-6",
            "Creation_Date__c": "2019-06-11",
            "Order_Lines__r": {
                "records": []
            }
        },
        {
            "attributes": {
                "type": "Order_Header__c",
                "referenceId": "Order_Header__cRef10"
            },
            "Name": "7 - Header Without Lines",
            "Order_Number__c": "7_Number",
            "Factory_Number__c": "AA/7",
            "Customer_Number__c": "CusNum-7",
            "Creation_Date__c": "2019-06-11",
            "Order_Lines__r": {
                "records": []
            }
        },
        {
            "attributes": {
                "type": "Order_Header__c",
                "referenceId": "Order_Header__cRef11"
            },
            "Name": "8 - Header Without Lines",
            "Order_Number__c": "8_Number",
            "Factory_Number__c": "AA/8",
            "Customer_Number__c": "CusNum-8",
            "Creation_Date__c": "2019-06-11",
            "Order_Lines__r": {
                "records": []
            }
        },
        {
            "attributes": {
                "type": "Order_Header__c",
                "referenceId": "Order_Header__cRef12"
            },
            "Name": "9 - Header Without Lines",
            "Order_Number__c": "9_Number",
            "Factory_Number__c": "AA/9",
            "Customer_Number__c": "CusNum-9",
            "Creation_Date__c": "2019-06-11",
            "Order_Lines__r": {
                "records": []
            }
        },
        {
            "attributes": {
                "type": "Order_Header__c",
                "referenceId": "Order_Header__cRef13"
            },
            "Name": "10 - Header Without Lines",
            "Order_Number__c": "10_Number",
            "Factory_Number__c": "AA/10",
            "Customer_Number__c": "CusNum-10",
            "Creation_Date__c": "2019-06-11",
            "Order_Lines__r": {
                "records": []
            }
        },
        {
            "attributes": {
                "type": "Order_Header__c",
                "referenceId": "Order_Header__cRef14"
            },
            "Name": "11 - Header Without Lines",
            "Order_Number__c": "11_Number",
            "Factory_Number__c": "AA/11",
            "Customer_Number__c": "CusNum-11",
            "Creation_Date__c": "2019-06-11",
            "Order_Lines__r": {
                "records": []
            }
        },
        {
            "attributes": {
                "type": "Order_Header__c",
                "referenceId": "Order_Header__cRef15"
            },
            "Name": "12 - Header Without Lines",
            "Order_Number__c": "12_Number",
            "Factory_Number__c": "AA/12",
            "Customer_Number__c": "CusNum-12",
            "Creation_Date__c": "2019-06-11",
            "Order_Lines__r": {
                "records": []
            }
        },
        {
            "attributes": {
                "type": "Order_Header__c",
                "referenceId": "Order_Header__cRef16"
            },
            "Name": "13 - Header Without Lines",
            "Order_Number__c": "13_Number",
            "Factory_Number__c": "AA/13",
            "Customer_Number__c": "CusNum-13",
            "Creation_Date__c": "2019-06-11",
            "Order_Lines__r": {
                "records": []
            }
        },
        {
            "attributes": {
                "type": "Order_Header__c",
                "referenceId": "Order_Header__cRef17"
            },
            "Name": "14 - Header Without Lines",
            "Order_Number__c": "14_Number",
            "Factory_Number__c": "AA/14",
            "Customer_Number__c": "CusNum-14",
            "Creation_Date__c": "2019-06-11",
            "Order_Lines__r": {
                "records": []
            }
        },
        {
            "attributes": {
                "type": "Order_Header__c",
                "referenceId": "Order_Header__cRef18"
            },
            "Name": "15 - Header Without Lines",
            "Order_Number__c": "15_Number",
            "Factory_Number__c": "AA/15",
            "Customer_Number__c": "CusNum-15",
            "Creation_Date__c": "2019-06-11",
            "Order_Lines__r": {
                "records": []
            }
        },
        {
            "attributes": {
                "type": "Order_Header__c",
                "referenceId": "Order_Header__cRef19"
            },
            "Name": "16 - Header Without Lines",
            "Order_Number__c": "16_Number",
            "Factory_Number__c": "AA/16",
            "Customer_Number__c": "CusNum-16",
            "Creation_Date__c": "2019-06-11",
            "Order_Lines__r": {
                "records": []
            }
        },
        {
            "attributes": {
                "type": "Order_Header__c",
                "referenceId": "Order_Header__cRef20"
            },
            "Name": "17 - Header Without Lines",
            "Order_Number__c": "17_Number",
            "Factory_Number__c": "AA/17",
            "Customer_Number__c": "CusNum-17",
            "Creation_Date__c": "2019-06-11",
            "Order_Lines__r": {
                "records": []
            }
        },
        {
            "attributes": {
                "type": "Order_Header__c",
                "referenceId": "Order_Header__cRef21"
            },
            "Name": "18 - Header Without Lines",
            "Order_Number__c": "18_Number",
            "Factory_Number__c": "AA/18",
            "Customer_Number__c": "CusNum-18",
            "Creation_Date__c": "2019-06-11",
            "Order_Lines__r": {
                "records": []
            }
        },
        {
            "attributes": {
                "type": "Order_Header__c",
                "referenceId": "Order_Header__cRef22"
            },
            "Name": "19 - Header Without Lines",
            "Order_Number__c": "19_Number",
            "Factory_Number__c": "AA/19",
            "Customer_Number__c": "CusNum-19",
            "Creation_Date__c": "2019-06-11",
            "Order_Lines__r": {
                "records": []
            }
        },
        {
            "attributes": {
                "type": "Order_Header__c",
                "referenceId": "Order_Header__cRef23"
            },
            "Name": "20 - Header Without Lines",
            "Order_Number__c": "20_Number",
            "Factory_Number__c": "AA/20",
            "Customer_Number__c": "CusNum-20",
            "Creation_Date__c": "2019-06-11",
            "Order_Lines__r": {
                "records": []
            }
        },
        {
            "attributes": {
                "type": "Order_Header__c",
                "referenceId": "Order_Header__cRef24"
            },
            "Name": "21 - Header Without Lines",
            "Order_Number__c": "21_Number",
            "Factory_Number__c": "AA/21",
            "Customer_Number__c": "CusNum-21",
            "Creation_Date__c": "2019-06-11",
            "Order_Lines__r": {
                "records": []
            }
        },
        {
            "attributes": {
                "type": "Order_Header__c",
                "referenceId": "Order_Header__cRef25"
            },
            "Name": "22 - Header Without Lines",
            "Order_Number__c": "22_Number",
            "Factory_Number__c": "AA/22",
            "Customer_Number__c": "CusNum-22",
            "Creation_Date__c": "2019-06-11",
            "Order_Lines__r": {
                "records": []
            }
        },
        {
            "attributes": {
                "type": "Order_Header__c",
                "referenceId": "Order_Header__cRef26"
            },
            "Name": "23 - Header Without Lines",
            "Order_Number__c": "23_Number",
            "Factory_Number__c": "AA/23",
            "Customer_Number__c": "CusNum-23",
            "Creation_Date__c": "2019-06-11",
            "Order_Lines__r": {
                "records": []
            }
        },
        {
            "attributes": {
                "type": "Order_Header__c",
                "referenceId": "Order_Header__cRef27"
            },
            "Name": "24 - Header Without Lines",
            "Order_Number__c": "24_Number",
            "Factory_Number__c": "AA/24",
            "Customer_Number__c": "CusNum-24",
            "Creation_Date__c": "2019-06-11",
            "Order_Lines__r": {
                "records": []
            }
        },
        {
            "attributes": {
                "type": "Order_Header__c",
                "referenceId": "Order_Header__cRef28"
            },
            "Name": "25 - Header Without Lines",
            "Order_Number__c": "25_Number",
            "Factory_Number__c": "AA/25",
            "Customer_Number__c": "CusNum-25",
            "Creation_Date__c": "2019-06-11",
            "Order_Lines__r": {
                "records": []
            }
        },
        {
            "attributes": {
                "type": "Order_Header__c",
                "referenceId": "Order_Header__cRef29"
            },
            "Name": "26 - Header Without Lines",
            "Order_Number__c": "26_Number",
            "Factory_Number__c": "AA/26",
            "Customer_Number__c": "CusNum-26",
            "Creation_Date__c": "2019-06-11",
            "Order_Lines__r": {
                "records": []
            }
        },
        {
            "attributes": {
                "type": "Order_Header__c",
                "referenceId": "Order_Header__cRef30"
            },
            "Name": "27 - Header Without Lines",
            "Order_Number__c": "27_Number",
            "Factory_Number__c": "AA/27",
            "Customer_Number__c": "CusNum-27",
            "Creation_Date__c": "2019-06-11",
            "Order_Lines__r": {
                "records": []
            }
        },
        {
            "attributes": {
                "type": "Order_Header__c",
                "referenceId": "Order_Header__cRef31"
            },
            "Name": "28 - Header Without Lines",
            "Order_Number__c": "28_Number",
            "Factory_Number__c": "AA/28",
            "Customer_Number__c": "CusNum-28",
            "Creation_Date__c": "2019-06-11",
            "Order_Lines__r": {
                "records": []
            }
        },
        {
            "attributes": {
                "type": "Order_Header__c",
                "referenceId": "Order_Header__cRef32"
            },
            "Name": "29 - Header Without Lines",
            "Order_Number__c": "29_Number",
            "Factory_Number__c": "AA/29",
            "Customer_Number__c": "CusNum-29",
            "Creation_Date__c": "2019-06-11",
            "Order_Lines__r": {
                "records": []
            }
        },
        {
            "attributes": {
                "type": "Order_Header__c",
                "referenceId": "Order_Header__cRef33"
            },
            "Name": "30 - Header Without Lines",
            "Order_Number__c": "30_Number",
            "Factory_Number__c": "AA/30",
            "Customer_Number__c": "CusNum-30",
            "Creation_Date__c": "2019-06-11",
            "Order_Lines__r": {
                "records": []
            }
        },
        {
            "attributes": {
                "type": "Order_Header__c",
                "referenceId": "Order_Header__cRef34"
            },
            "Name": "31 - Header Without Lines",
            "Order_Number__c": "31_Number",
            "Factory_Number__c": "AA/31",
            "Customer_Number__c": "CusNum-31",
            "Creation_Date__c": "2019-06-11",
            "Order_Lines__r": {
                "records": []
            }
        },
        {
            "attributes": {
                "type": "Order_Header__c",
                "referenceId": "Order_Header__cRef35"
            },
            "Name": "32 - Header Without Lines",
            "Order_Number__c": "32_Number",
            "Factory_Number__c": "AA/32",
            "Customer_Number__c": "CusNum-32",
            "Creation_Date__c": "2019-06-11",
            "Order_Lines__r": {
                "records": []
            }
        },
        {
            "attributes": {
                "type": "Order_Header__c",
                "referenceId": "Order_Header__cRef36"
            },
            "Name": "33 - Header Without Lines",
            "Order_Number__c": "33_Number",
            "Factory_Number__c": "AA/33",
            "Customer_Number__c": "CusNum-33",
            "Creation_Date__c": "2019-06-11",
            "Order_Lines__r": {
                "records": []
            }
        },
        {
            "attributes": {
                "type": "Order_Header__c",
                "referenceId": "Order_Header__cRef37"
            },
            "Name": "34 - Header Without Lines",
            "Order_Number__c": "34_Number",
            "Factory_Number__c": "AA/34",
            "Customer_Number__c": "CusNum-34",
            "Creation_Date__c": "2019-06-11",
            "Order_Lines__r": {
                "records": []
            }
        },
        {
            "attributes": {
                "type": "Order_Header__c",
                "referenceId": "Order_Header__cRef38"
            },
            "Name": "35 - Header Without Lines",
            "Order_Number__c": "35_Number",
            "Factory_Number__c": "AA/35",
            "Customer_Number__c": "CusNum-35",
            "Creation_Date__c": "2019-06-11",
            "Order_Lines__r": {
                "records": []
            }
        },
        {
            "attributes": {
                "type": "Order_Header__c",
                "referenceId": "Order_Header__cRef39"
            },
            "Name": "36 - Header Without Lines",
            "Order_Number__c": "36_Number",
            "Factory_Number__c": "AA/36",
            "Customer_Number__c": "CusNum-36",
            "Creation_Date__c": "2019-06-11",
            "Order_Lines__r": {
                "records": []
            }
        },
        {
            "attributes": {
                "type": "Order_Header__c",
                "referenceId": "Order_Header__cRef40"
            },
            "Name": "37 - Header Without Lines",
            "Order_Number__c": "37_Number",
            "Factory_Number__c": "AA/37",
            "Customer_Number__c": "CusNum-37",
            "Creation_Date__c": "2019-06-11",
            "Order_Lines__r": {
                "records": []
            }
        },
        {
            "attributes": {
                "type": "Order_Header__c",
                "referenceId": "Order_Header__cRef41"
            },
            "Name": "38 - Header Without Lines",
            "Order_Number__c": "38_Number",
            "Factory_Number__c": "AA/38",
            "Customer_Number__c": "CusNum-38",
            "Creation_Date__c": "2019-06-11",
            "Order_Lines__r": {
                "records": []
            }
        },
        {
            "attributes": {
                "type": "Order_Header__c",
                "referenceId": "Order_Header__cRef42"
            },
            "Name": "39 - Header Without Lines",
            "Order_Number__c": "39_Number",
            "Factory_Number__c": "AA/39",
            "Customer_Number__c": "CusNum-39",
            "Creation_Date__c": "2019-06-11",
            "Order_Lines__r": {
                "records": []
            }
        },
        {
            "attributes": {
                "type": "Order_Header__c",
                "referenceId": "Order_Header__cRef43"
            },
            "Name": "40 - Header Without Lines",
            "Order_Number__c": "40_Number",
            "Factory_Number__c": "AA/40",
            "Customer_Number__c": "CusNum-40",
            "Creation_Date__c": "2019-06-11",
            "Order_Lines__r": {
                "records": []
            }
        },
        {
            "attributes": {
                "type": "Order_Header__c",
                "referenceId": "Order_Header__cRef44"
            },
            "Name": "41 - Header Without Lines",
            "Order_Number__c": "41_Number",
            "Factory_Number__c": "AA/41",
            "Customer_Number__c": "CusNum-41",
            "Creation_Date__c": "2019-06-11",
            "Order_Lines__r": {
                "records": []
            }
        },
        {
            "attributes": {
                "type": "Order_Header__c",
                "referenceId": "Order_Header__cRef45"
            },
            "Name": "42 - Header Without Lines",
            "Order_Number__c": "42_Number",
            "Factory_Number__c": "AA/42",
            "Customer_Number__c": "CusNum-42",
            "Creation_Date__c": "2019-06-11",
            "Order_Lines__r": {
                "records": []
            }
        },
        {
            "attributes": {
                "type": "Order_Header__c",
                "referenceId": "Order_Header__cRef46"
            },
            "Name": "43 - Header Without Lines",
            "Order_Number__c": "43_Number",
            "Factory_Number__c": "AA/43",
            "Customer_Number__c": "CusNum-43",
            "Creation_Date__c": "2019-06-11",
            "Order_Lines__r": {
                "records": []
            }
        },
        {
            "attributes": {
                "type": "Order_Header__c",
                "referenceId": "Order_Header__cRef47"
            },
            "Name": "44 - Header Without Lines",
            "Order_Number__c": "44_Number",
            "Factory_Number__c": "AA/44",
            "Customer_Number__c": "CusNum-44",
            "Creation_Date__c": "2019-06-11",
            "Order_Lines__r": {
                "records": []
            }
        },
        {
            "attributes": {
                "type": "Order_Header__c",
                "referenceId": "Order_Header__cRef48"
            },
            "Name": "45 - Header Without Lines",
            "Order_Number__c": "45_Number",
            "Factory_Number__c": "AA/45",
            "Customer_Number__c": "CusNum-45",
            "Creation_Date__c": "2019-06-11",
            "Order_Lines__r": {
                "records": []
            }
        },
        {
            "attributes": {
                "type": "Order_Header__c",
                "referenceId": "Order_Header__cRef49"
            },
            "Name": "46 - Header Without Lines",
            "Order_Number__c": "46_Number",
            "Factory_Number__c": "AA/46",
            "Customer_Number__c": "CusNum-46",
            "Creation_Date__c": "2019-06-11",
            "Order_Lines__r": {
                "records": []
            }
        },
        {
            "attributes": {
                "type": "Order_Header__c",
                "referenceId": "Order_Header__cRef50"
            },
            "Name": "47 - Header Without Lines",
            "Order_Number__c": "47_Number",
            "Factory_Number__c": "AA/47",
            "Customer_Number__c": "CusNum-47",
            "Creation_Date__c": "2019-06-11",
            "Order_Lines__r": {
                "records": []
            }
        },
        {
            "attributes": {
                "type": "Order_Header__c",
                "referenceId": "Order_Header__cRef51"
            },
            "Name": "48 - Header Without Lines",
            "Order_Number__c": "48_Number",
            "Factory_Number__c": "AA/48",
            "Customer_Number__c": "CusNum-48",
            "Creation_Date__c": "2019-06-11",
            "Order_Lines__r": {
                "records": []
            }
        },
        {
            "attributes": {
                "type": "Order_Header__c",
                "referenceId": "Order_Header__cRef52"
            },
            "Name": "49 - Header Without Lines",
            "Order_Number__c": "49_Number",
            "Factory_Number__c": "AA/49",
            "Customer_Number__c": "CusNum-49",
            "Creation_Date__c": "2019-06-11",
            "Order_Lines__r": {
                "records": []
            }
        },
        {
            "attributes": {
                "type": "Order_Header__c",
                "referenceId": "Order_Header__cRef53"
            },
            "Name": "50 - Header Without Lines",
            "Order_Number__c": "50_Number",
            "Factory_Number__c": "AA/50",
            "Customer_Number__c": "CusNum-50",
            "Creation_Date__c": "2019-06-11",
            "Order_Lines__r": {
                "records": []
            }
        },
        {
            "attributes": {
                "type": "Order_Header__c",
                "referenceId": "Order_Header__cRef54"
            },
            "Name": "00/0 - Header With Lines",
            "Order_Number__c": "0_Number",
            "Factory_Number__c": "BB/0",
            "Customer_Number__c": "CusNum-Lines",
            "Creation_Date__c": "2019-06-11",
            "Order_Lines__r": {
                "records": [
                    {
                        "attributes": {
                            "type": "Order_Lines__c",
                            "referenceId": "Order_Lines__cRef12"
                        },
                        "Name": "1321",
                        "Item_Code__c": "Code/1",
                        "Unit_Selling_Price__c": 100,
                        "Cancellation_Flag__c": false
                    }
                ]
            }
        },
        {
            "attributes": {
                "type": "Order_Header__c",
                "referenceId": "Order_Header__cRef55"
            },
            "Name": "00/1 - Header With Lines",
            "Order_Number__c": "1_Number",
            "Factory_Number__c": "BB/1",
            "Customer_Number__c": "CusNum-Lines",
            "Creation_Date__c": "2019-06-11",
            "Order_Lines__r": {
                "records": [
                    {
                        "attributes": {
                            "type": "Order_Lines__c",
                            "referenceId": "Order_Lines__cRef13"
                        },
                        "Name": "1322",
                        "Item_Code__c": "Code/2",
                        "Unit_Selling_Price__c": 200,
                        "Cancellation_Flag__c": false
                    }
                ]
            }
        },
        {
            "attributes": {
                "type": "Order_Header__c",
                "referenceId": "Order_Header__cRef56"
            },
            "Name": "00/2 - Header With Lines",
            "Order_Number__c": "2_Number",
            "Factory_Number__c": "BB/2",
            "Customer_Number__c": "CusNum-Lines",
            "Creation_Date__c": "2019-06-11",
            "Order_Lines__r": {
                "records": [
                    {
                        "attributes": {
                            "type": "Order_Lines__c",
                            "referenceId": "Order_Lines__cRef14"
                        },
                        "Name": "1323",
                        "Item_Code__c": "Code/3",
                        "Unit_Selling_Price__c": 300,
                        "Cancellation_Flag__c": false
                    }
                ]
            }
        },
        {
            "attributes": {
                "type": "Order_Header__c",
                "referenceId": "Order_Header__cRef57"
            },
            "Name": "00/3 - Header With Lines",
            "Order_Number__c": "3_Number",
            "Factory_Number__c": "BB/3",
            "Customer_Number__c": "CusNum-Lines",
            "Creation_Date__c": "2019-06-11",
            "Order_Lines__r": {
                "records": [
                    {
                        "attributes": {
                            "type": "Order_Lines__c",
                            "referenceId": "Order_Lines__cRef15"
                        },
                        "Name": "1324",
                        "Item_Code__c": "Code/4",
                        "Unit_Selling_Price__c": 400,
                        "Cancellation_Flag__c": false
                    }
                ]
            }
        },
        {
            "attributes": {
                "type": "Order_Header__c",
                "referenceId": "Order_Header__cRef58"
            },
            "Name": "00/4 - Header With Lines",
            "Order_Number__c": "4_Number",
            "Factory_Number__c": "BB/4",
            "Customer_Number__c": "CusNum-Lines",
            "Creation_Date__c": "2019-06-11",
            "Order_Lines__r": {
                "records": [
                    {
                        "attributes": {
                            "type": "Order_Lines__c",
                            "referenceId": "Order_Lines__cRef16"
                        },
                        "Name": "1325",
                        "Item_Code__c": "Code/5",
                        "Unit_Selling_Price__c": 500,
                        "Cancellation_Flag__c": false
                    }
                ]
            }
        }
    ]
}